caue/simulation/qsim/acumulador8.msim.vcd
$comment
	File created using the following command:
		vcd file acumulador8.msim.vcd -direction
$end
$date
	Fri Dec 01 11:08:05 2023
$end
$version
	ModelSim Version 10.1d
$end
$timescale
	1ps
$end
$scope module acumulador8_vlg_vec_tst $end
$var reg 1 ! C $end
$var reg 1 " clock $end
$var reg 8 # dados_entrada [7:0] $end
$var reg 1 $ reset_acumulador $end
$var wire 1 % dados_saida [7] $end
$var wire 1 & dados_saida [6] $end
$var wire 1 ' dados_saida [5] $end
$var wire 1 ( dados_saida [4] $end
$var wire 1 ) dados_saida [3] $end
$var wire 1 * dados_saida [2] $end
$var wire 1 + dados_saida [1] $end
$var wire 1 , dados_saida [0] $end
$var wire 1 - sampler $end
$scope module i1 $end
$var wire 1 . gnd $end
$var wire 1 / vcc $end
$var wire 1 0 unknown $end
$var tri1 1 1 devclrn $end
$var tri1 1 2 devpor $end
$var tri1 1 3 devoe $end
$var wire 1 4 dados_entrada[6]~input_o $end
$var wire 1 5 dados_entrada[7]~input_o $end
$var wire 1 6 dados_saida[0]~output_o $end
$var wire 1 7 dados_saida[1]~output_o $end
$var wire 1 8 dados_saida[2]~output_o $end
$var wire 1 9 dados_saida[3]~output_o $end
$var wire 1 : dados_saida[4]~output_o $end
$var wire 1 ; dados_saida[5]~output_o $end
$var wire 1 < dados_saida[6]~output_o $end
$var wire 1 = dados_saida[7]~output_o $end
$var wire 1 > clock~input_o $end
$var wire 1 ? clock~inputclkctrl_outclk $end
$var wire 1 @ dados_entrada[0]~input_o $end
$var wire 1 A reset_acumulador~input_o $end
$var wire 1 B temp2~0_combout $end
$var wire 1 C C~input_o $end
$var wire 1 D temp2[0]~1_combout $end
$var wire 1 E dados_entrada[1]~input_o $end
$var wire 1 F somador|bit1|soma~0_combout $end
$var wire 1 G temp2~2_combout $end
$var wire 1 H dados_entrada[2]~input_o $end
$var wire 1 I somador|bit1|c_out~0_combout $end
$var wire 1 J temp2~3_combout $end
$var wire 1 K somador|bit3|soma~0_combout $end
$var wire 1 L temp2~4_combout $end
$var wire 1 M dados_entrada[4]~input_o $end
$var wire 1 N somador|bit4|soma~0_combout $end
$var wire 1 O dados_entrada[3]~input_o $end
$var wire 1 P somador|bit3|c_out~1_combout $end
$var wire 1 Q somador|bit3|c_out~2_combout $end
$var wire 1 R temp2~5_combout $end
$var wire 1 S somador|bit3|c_out~0_combout $end
$var wire 1 T somador|bit4|c_out~0_combout $end
$var wire 1 U temp2~6_combout $end
$var wire 1 V dados_entrada[5]~input_o $end
$var wire 1 W somador|bit5|c_out~0_combout $end
$var wire 1 X temp2~7_combout $end
$var wire 1 Y temp2~8_combout $end
$var wire 1 Z temp2~9_combout $end
$var wire 1 [ temp2 [7] $end
$var wire 1 \ temp2 [6] $end
$var wire 1 ] temp2 [5] $end
$var wire 1 ^ temp2 [4] $end
$var wire 1 _ temp2 [3] $end
$var wire 1 ` temp2 [2] $end
$var wire 1 a temp2 [1] $end
$var wire 1 b temp2 [0] $end
$upscope $end
$upscope $end
$enddefinitions $end
#0
$dumpvars
0!
0"
b0 #
1$
0,
0+
0*
0)
0(
0'
0&
0%
x-
0.
1/
x0
11
12
13
04
05
06
07
08
09
0:
0;
0<
0=
0>
0?
0@
1A
0B
0C
0D
0E
0F
0G
0H
0I
0J
0K
0L
0M
0N
0O
0P
0Q
0R
0S
0T
0U
0V
0W
0X
0Y
0Z
0b
0a
0`
0_
0^
0]
0\
0[
$end
#10000
1"
b10000000 #
1>
15
1?
0-
1Z
#20000
1!
b11000000 #
0"
b1000000 #
1C
14
05
0>
0?
1-
1D
1X
0Z
#30000
b1000001 #
1"
b11000001 #
1@
15
1>
1?
0-
1B
1Z
1\
1Y
0X
1<
1&
0Z
#40000
0!
b10000001 #
0"
b1 #
0C
04
05
0>
0?
1-
0D
0Y
1X
1Z
0Z
#50000
1"
b10000001 #
1>
15
1?
0-
1Z
#60000
b10000000 #
1!
b11000000 #
0"
b1000000 #
0@
14
05
1C
0>
0?
1-
0B
1Y
0X
0Z
1D
1Z
#70000
1"
b11000000 #
1>
15
1?
0-
0Z
1[
0\
1Z
0Y
1X
1=
0<
1%
0&
0Z
#80000
0!
b10000000 #
0"
b0 #
0C
04
05
0>
0?
1-
0D
0X
1Z
#90000
b1 #
1"
b10000001 #
1@
15
1>
1?
0-
1B
0Z
#100000
1!
b11000001 #
0"
b1000001 #
1C
14
05
0>
0?
1-
1D
1X
1Z
#110000
1"
b11000001 #
1>
15
1?
0-
0Z
1\
1b
1Y
0X
1F
0B
1<
16
1&
1,
1Z
1G
#120000
b11000000 #
0!
b10000000 #
0"
b0 #
0@
04
05
0C
0>
0?
1-
0F
1B
0Y
1X
0Z
0D
0G
1Z
#130000
1"
b10000000 #
1>
15
1?
0-
0Z
#140000
1!
b11000000 #
0"
b1000000 #
1C
14
05
0>
0?
1-
1D
1Y
0X
1Z
0Z
#150000
b1000001 #
1"
b11000001 #
1@
15
1>
1?
0-
1F
0B
1Z
1G
0[
0\
0Z
0Y
1X
0=
0<
0%
0&
1Z
#160000
0!
b10000001 #
0"
b1 #
0C
04
05
0>
0?
1-
0D
0X
0Z
#170000
1"
b10000001 #
1>
15
1?
0-
1Z
#180000
b10000000 #
1!
b11000000 #
0"
b1000000 #
0@
14
05
1C
0>
0?
1-
0F
1B
1X
0Z
1D
0G
#190000
1"
b11000000 #
1>
15
1?
0-
1Z
1\
1Y
0X
1<
1&
0Z
#200000
0!
b10000000 #
0"
b0 #
0C
04
05
0>
0?
1-
0D
0Y
1X
1Z
0Z
#210000
b1 #
1"
b10000001 #
1@
15
1>
1?
0-
1F
0B
1Z
1G
#220000
1!
b11000001 #
0"
b1000001 #
1C
14
05
0>
0?
1-
1D
1Y
0X
0Z
1Z
#230000
1"
b11000001 #
1>
15
1?
0-
0Z
1[
0\
1a
0b
1Z
0Y
1X
1B
1=
0<
17
06
1%
0&
1+
0,
0Z
#240000
b11000000 #
0!
b10000000 #
0"
b0 #
0@
04
05
0C
0>
0?
1-
0B
0X
1Z
0D
#250000
1"
b10000000 #
1>
15
1?
0-
0Z
#260000
1!
b11000000 #
0"
b1000000 #
1C
14
05
0>
0?
1-
1D
1X
1Z
#270000
b1000001 #
1"
b11000001 #
1@
15
1>
1?
0-
1B
0Z
1\
1Y
0X
1<
1&
1Z
#280000
0!
b10000001 #
0"
b1 #
0C
04
05
0>
0?
1-
0D
0Y
1X
0Z
1Z
#290000
1"
b10000001 #
1>
15
1?
0-
0Z
#300000
b10000000 #
1!
b11000000 #
0"
b1000000 #
0@
14
05
1C
0>
0?
1-
0B
1Y
0X
1Z
1D
0Z
#310000
1"
b11000000 #
1>
15
1?
0-
1Z
0[
0\
0Z
0Y
1X
0=
0<
0%
0&
1Z
#320000
0!
b10000000 #
0"
b0 #
0C
04
05
0>
0?
1-
0D
0X
0Z
#330000
b1 #
1"
b10000001 #
1@
15
1>
1?
0-
1B
1Z
#340000
1!
b11000001 #
0"
b1000001 #
1C
14
05
0>
0?
1-
1D
1X
0Z
#350000
1"
b11000001 #
1>
15
1?
0-
1Z
1\
1b
1Y
0X
1I
0F
0B
1<
16
1&
1,
0Z
1J
0G
#360000
b11000000 #
0!
b10000000 #
0"
b0 #
0@
04
05
0C
0>
0?
1-
0I
1F
1B
0Y
1X
1Z
0D
0J
1G
0Z
#370000
1"
b10000000 #
1>
15
1?
0-
1Z
#380000
1!
b11000000 #
0"
b1000000 #
1C
14
05
0>
0?
1-
1D
1Y
0X
0Z
1Z
#390000
b1000001 #
1"
b11000001 #
1@
15
1>
1?
0-
1I
0F
0B
0Z
1J
0G
1[
0\
1Z
0Y
1X
1=
0<
1%
0&
0Z
#400000
0!
b10000001 #
0"
b1 #
0C
04
05
0>
0?
1-
0D
0X
1Z
#410000
1"
b10000001 #
1>
15
1?
0-
0Z
#420000
b10000000 #
1!
b11000000 #
0"
b1000000 #
0@
14
05
1C
0>
0?
1-
0I
1F
1B
1X
1Z
1D
0J
1G
#430000
1"
b11000000 #
1>
15
1?
0-
0Z
1\
1Y
0X
1<
1&
1Z
#440000
0!
b10000000 #
0"
b0 #
0C
04
05
0>
0?
1-
0D
0Y
1X
0Z
1Z
#450000
b1 #
1"
b10000001 #
1@
15
1>
1?
0-
1I
0F
0B
0Z
1J
0G
#460000
1!
b11000001 #
0"
b1000001 #
1C
14
05
0>
0?
1-
1D
1Y
0X
1Z
0Z
#470000
1"
b11000001 #
1>
15
1?
0-
1Z
0[
0\
1`
0a
0b
0Z
0Y
1X
1K
0J
0I
1B
0=
0<
18
07
06
0%
0&
1*
0+
0,
1Z
1L
0K
1J
0L
#480000
b11000000 #
0!
b10000000 #
0"
b0 #
0@
04
05
0C
0>
0?
1-
0B
0X
0Z
0D
#490000
1"
b10000000 #
1>
15
1?
0-
1Z
#500000
1!
b11000000 #
0"
b1000000 #
1C
14
05
0>
0?
1-
1D
1X
0Z
#510000
b1000001 #
1"
b11000001 #
1@
15
1>
1?
0-
1B
1Z
1\
1Y
0X
1<
1&
0Z
#520000
0!
b10000001 #
0"
b1 #
0C
04
05
0>
0?
1-
0D
0Y
1X
1Z
0Z
#530000
1"
b10000001 #
1>
15
1?
0-
1Z
#540000
b10000000 #
1!
b11000000 #
0"
b1000000 #
0@
14
05
1C
0>
0?
1-
0B
1Y
0X
0Z
1D
1Z
#550000
1"
b11000000 #
1>
15
1?
0-
0Z
1[
0\
1Z
0Y
1X
1=
0<
1%
0&
0Z
#560000
0!
b10000000 #
0"
b0 #
0C
04
05
0>
0?
1-
0D
0X
1Z
#570000
b1 #
1"
b10000001 #
1@
15
1>
1?
0-
1B
0Z
#580000
1!
b11000001 #
0"
b1000001 #
1C
14
05
0>
0?
1-
1D
1X
1Z
#590000
1"
b11000001 #
1>
15
1?
0-
0Z
1\
1b
1Y
0X
1F
0B
1<
16
1&
1,
1Z
1G
#600000
b11000000 #
0!
b10000000 #
0"
b0 #
0@
04
05
0C
0>
0?
1-
0F
1B
0Y
1X
0Z
0D
0G
1Z
#610000
1"
b10000000 #
1>
15
1?
0-
0Z
#620000
1!
b11000000 #
0"
b1000000 #
1C
14
05
0>
0?
1-
1D
1Y
0X
1Z
0Z
#630000
b1000001 #
1"
b11000001 #
1@
15
1>
1?
0-
1F
0B
1Z
1G
0[
0\
0Z
0Y
1X
0=
0<
0%
0&
1Z
#640000
0!
b10000001 #
0"
b1 #
0C
04
05
0>
0?
1-
0D
0X
0Z
#650000
1"
b10000001 #
1>
15
1?
0-
1Z
#660000
b10000000 #
1!
b11000000 #
0"
b1000000 #
0@
14
05
1C
0>
0?
1-
0F
1B
1X
0Z
1D
0G
#670000
1"
b11000000 #
1>
15
1?
0-
1Z
1\
1Y
0X
1<
1&
0Z
#680000
0!
b10000000 #
0"
b0 #
0C
04
05
0>
0?
1-
0D
0Y
1X
1Z
0Z
#690000
b1 #
1"
b10000001 #
1@
15
1>
1?
0-
1F
0B
1Z
1G
#700000
1!
b11000001 #
0"
b1000001 #
1C
14
05
0>
0?
1-
1D
1Y
0X
0Z
1Z
#710000
1"
b11000001 #
1>
15
1?
0-
0Z
1[
0\
1a
0b
1Z
0Y
1X
1B
1=
0<
17
06
1%
0&
1+
0,
0Z
#720000
b11000000 #
0!
b10000000 #
0"
b0 #
0@
04
05
0C
0>
0?
1-
0B
0X
1Z
0D
#730000
1"
b10000000 #
1>
15
1?
0-
0Z
#740000
1!
b11000000 #
0"
b1000000 #
1C
14
05
0>
0?
1-
1D
1X
1Z
#750000
b1000001 #
1"
b11000001 #
1@
15
1>
1?
0-
1B
0Z
1\
1Y
0X
1<
1&
1Z
#760000
0!
b10000001 #
0"
b1 #
0C
04
05
0>
0?
1-
0D
0Y
1X
0Z
1Z
#770000
1"
b10000001 #
1>
15
1?
0-
0Z
#780000
b10000000 #
1!
b11000000 #
0"
b1000000 #
0@
14
05
1C
0>
0?
1-
0B
1Y
0X
1Z
1D
0Z
#790000
1"
b11000000 #
1>
15
1?
0-
1Z
0[
0\
0Z
0Y
1X
0=
0<
0%
0&
1Z
#800000
0!
b10000000 #
0"
b0 #
0C
04
05
0>
0?
1-
0D
0X
0Z
#810000
b1 #
1"
b10000001 #
1@
15
1>
1?
0-
1B
1Z
#820000
1!
b11000001 #
0"
b1000001 #
1C
14
05
0>
0?
1-
1D
1X
0Z
#830000
1"
b11000001 #
1>
15
1?
0-
1Z
1\
1b
1Y
0X
1I
0F
0B
1<
16
1&
1,
0Z
1K
0J
0G
1L
#840000
b11000000 #
0!
b10000000 #
0"
b0 #
0@
04
05
0C
0>
0?
1-
0I
1F
1B
0Y
1X
1Z
0D
0K
1J
1G
0Z
0L
#850000
1"
b10000000 #
1>
15
1?
0-
1Z
#860000
1!
b11000000 #
0"
b1000000 #
1C
14
05
0>
0?
1-
1D
1Y
0X
0Z
1Z
#870000
b1000001 #
1"
b11000001 #
1@
15
1>
1?
0-
1I
0F
0B
0Z
1K
0J
0G
1L
1[
0\
1Z
0Y
1X
1=
0<
1%
0&
0Z
#880000
0!
b10000001 #
0"
b1 #
0C
04
05
0>
0?
1-
0D
0X
1Z
#890000
1"
b10000001 #
1>
15
1?
0-
0Z
#900000
b10000000 #
1!
b11000000 #
0"
b1000000 #
0@
14
05
1C
0>
0?
1-
0I
1F
1B
1X
1Z
1D
0K
1J
1G
0L
#910000
1"
b11000000 #
1>
15
1?
0-
0Z
1\
1Y
0X
1<
1&
1Z
#920000
0!
b10000000 #
0"
b0 #
0C
04
05
0>
0?
1-
0D
0Y
1X
0Z
1Z
#930000
b1 #
1"
b10000001 #
1@
15
1>
1?
0-
1I
0F
0B
0Z
1K
0J
0G
1L
#940000
1!
b11000001 #
0"
b1000001 #
1C
14
05
0>
0?
1-
1D
1Y
0X
1Z
0Z
#950000
1"
b11000001 #
1>
15
1?
0-
1Z
0[
0\
1_
0`
0a
0b
0Z
0Y
1X
1P
1J
0I
1B
0=
0<
19
08
07
06
0%
0&
1)
0*
0+
0,
1Z
0J
#960000
b11000000 #
0!
b10000000 #
0"
b0 #
0@
04
05
0C
0>
0?
1-
0B
0X
0Z
0D
#970000
1"
b10000000 #
1>
15
1?
0-
1Z
#980000
1!
b11000000 #
0"
b1000000 #
1C
14
05
0>
0?
1-
1D
1X
0Z
#990000
b1000001 #
1"
b11000001 #
1@
15
1>
1?
0-
1B
1Z
1\
1Y
0X
1<
1&
0Z
