MaquinaDeSalgadosFinal/simulation/qsim/MaquinaDeSalgadosFinal.msim.vcd
$comment
	File created using the following command:
		vcd file MaquinaDeSalgadosFinal.msim.vcd -direction
$end
$date
	Sat Dec 09 19:30:56 2023
$end
$version
	ModelSim Version 10.1d
$end
$timescale
	1ps
$end
$scope module vending_machine_vlg_vec_tst $end
$var reg 1 ! C $end
$var reg 3 " choice [2:0] $end
$var reg 1 # clk $end
$var reg 1 $ nRST $end
$var reg 9 % V [8:0] $end
$var wire 1 & D [2] $end
$var wire 1 ' D [1] $end
$var wire 1 ( D [0] $end
$var wire 1 ) E [8] $end
$var wire 1 * E [7] $end
$var wire 1 + E [6] $end
$var wire 1 , E [5] $end
$var wire 1 - E [4] $end
$var wire 1 . E [3] $end
$var wire 1 / E [2] $end
$var wire 1 0 E [1] $end
$var wire 1 1 E [0] $end
$var wire 1 2 ESTQ [8] $end
$var wire 1 3 ESTQ [7] $end
$var wire 1 4 ESTQ [6] $end
$var wire 1 5 ESTQ [5] $end
$var wire 1 6 ESTQ [4] $end
$var wire 1 7 ESTQ [3] $end
$var wire 1 8 ESTQ [2] $end
$var wire 1 9 ESTQ [1] $end
$var wire 1 : ESTQ [0] $end
$var wire 1 ; P [8] $end
$var wire 1 < P [7] $end
$var wire 1 = P [6] $end
$var wire 1 > P [5] $end
$var wire 1 ? P [4] $end
$var wire 1 @ P [3] $end
$var wire 1 A P [2] $end
$var wire 1 B P [1] $end
$var wire 1 C P [0] $end
$var wire 1 D sampler $end
$scope module i1 $end
$var wire 1 E gnd $end
$var wire 1 F vcc $end
$var wire 1 G unknown $end
$var tri1 1 H devclrn $end
$var tri1 1 I devpor $end
$var tri1 1 J devoe $end
$var wire 1 K P[0]~output_o $end
$var wire 1 L P[1]~output_o $end
$var wire 1 M P[2]~output_o $end
$var wire 1 N P[3]~output_o $end
$var wire 1 O P[4]~output_o $end
$var wire 1 P P[5]~output_o $end
$var wire 1 Q P[6]~output_o $end
$var wire 1 R P[7]~output_o $end
$var wire 1 S P[8]~output_o $end
$var wire 1 T E[0]~output_o $end
$var wire 1 U E[1]~output_o $end
$var wire 1 V E[2]~output_o $end
$var wire 1 W E[3]~output_o $end
$var wire 1 X E[4]~output_o $end
$var wire 1 Y E[5]~output_o $end
$var wire 1 Z E[6]~output_o $end
$var wire 1 [ E[7]~output_o $end
$var wire 1 \ E[8]~output_o $end
$var wire 1 ] D[0]~output_o $end
$var wire 1 ^ D[1]~output_o $end
$var wire 1 _ D[2]~output_o $end
$var wire 1 ` ESTQ[0]~output_o $end
$var wire 1 a ESTQ[1]~output_o $end
$var wire 1 b ESTQ[2]~output_o $end
$var wire 1 c ESTQ[3]~output_o $end
$var wire 1 d ESTQ[4]~output_o $end
$var wire 1 e ESTQ[5]~output_o $end
$var wire 1 f ESTQ[6]~output_o $end
$var wire 1 g ESTQ[7]~output_o $end
$var wire 1 h ESTQ[8]~output_o $end
$var wire 1 i clk~input_o $end
$var wire 1 j clk~inputclkctrl_outclk $end
$var wire 1 k nRST~input_o $end
$var wire 1 l C~input_o $end
$var wire 1 m choice[2]~input_o $end
$var wire 1 n choice[1]~input_o $end
$var wire 1 o choice[0]~input_o $end
$var wire 1 p mux|output[8]~1_combout $end
$var wire 1 q mux|output[1]~0_combout $end
$var wire 1 r Selector0~0_combout $end
$var wire 1 s V[8]~input_o $end
$var wire 1 t V[6]~input_o $end
$var wire 1 u V[3]~input_o $end
$var wire 1 v V[2]~input_o $end
$var wire 1 w V[0]~input_o $end
$var wire 1 x V[1]~input_o $end
$var wire 1 y accumulator|temp2~4_combout $end
$var wire 1 z V[5]~input_o $end
$var wire 1 { V[7]~input_o $end
$var wire 1 | next_state~0_combout $end
$var wire 1 } V[4]~input_o $end
$var wire 1 ~ next_state~1_combout $end
$var wire 1 !! next_state~2_combout $end
$var wire 1 "! next_state~3_combout $end
$var wire 1 #! accumulator|temp2[8]~12_combout $end
$var wire 1 $! accumulator|adder|bit1|sum~0_combout $end
$var wire 1 %! accumulator|temp2~13_combout $end
$var wire 1 &! accumulator|adder|bit1|c_out~0_combout $end
$var wire 1 '! accumulator|temp2~5_combout $end
$var wire 1 (! accumulator|adder|bit2|c_out~0_combout $end
$var wire 1 )! accumulator|temp2~6_combout $end
$var wire 1 *! accumulator|adder|bit3|c_out~0_combout $end
$var wire 1 +! accumulator|temp2~7_combout $end
$var wire 1 ,! accumulator|adder|bit4|c_out~1_combout $end
$var wire 1 -! accumulator|adder|bit4|c_out~2_combout $end
$var wire 1 .! accumulator|adder|bit5|sum~0_combout $end
$var wire 1 /! accumulator|adder|bit4|c_out~0_combout $end
$var wire 1 0! accumulator|temp2~8_combout $end
$var wire 1 1! accumulator|adder|bit5|c_out~0_combout $end
$var wire 1 2! accumulator|temp2~9_combout $end
$var wire 1 3! accumulator|adder|bit6|c_out~0_combout $end
$var wire 1 4! accumulator|temp2~10_combout $end
$var wire 1 5! accumulator|adder|bit7|c_out~0_combout $end
$var wire 1 6! accumulator|temp2~11_combout $end
$var wire 1 7! subtractor|subtractor|bit2|c_out~0_combout $end
$var wire 1 8! subtractor|subtractor|bit4|c_out~0_combout $end
$var wire 1 9! next_state~4_combout $end
$var wire 1 :! next_state~5_combout $end
$var wire 1 ;! CSTATE~6_combout $end
$var wire 1 <! CSTATE.soda_dispensation~q $end
$var wire 1 =! CSTATE~7_combout $end
$var wire 1 >! CSTATE.INIT_STATE~q $end
$var wire 1 ?! Selector11~0_combout $end
$var wire 1 @! CSTATE~5_combout $end
$var wire 1 A! CSTATE.Coin_Reception~q $end
$var wire 1 B! P~0_combout $end
$var wire 1 C! P~1_combout $end
$var wire 1 D! P~2_combout $end
$var wire 1 E! P~3_combout $end
$var wire 1 F! P~4_combout $end
$var wire 1 G! P~5_combout $end
$var wire 1 H! P~6_combout $end
$var wire 1 I! P~7_combout $end
$var wire 1 J! P~8_combout $end
$var wire 1 K! Selector9~0_combout $end
$var wire 1 L! Selector8~0_combout $end
$var wire 1 M! Selector8~1_combout $end
$var wire 1 N! subtractor|subtractor|bit2|sum~combout $end
$var wire 1 O! Selector7~0_combout $end
$var wire 1 P! Selector7~1_combout $end
$var wire 1 Q! Selector6~0_combout $end
$var wire 1 R! Selector6~1_combout $end
$var wire 1 S! subtractor|subtractor|bit4|sum~combout $end
$var wire 1 T! Selector5~0_combout $end
$var wire 1 U! Selector5~1_combout $end
$var wire 1 V! Selector4~0_combout $end
$var wire 1 W! Selector4~1_combout $end
$var wire 1 X! Selector3~1_combout $end
$var wire 1 Y! Selector3~0_combout $end
$var wire 1 Z! Selector3~2_combout $end
$var wire 1 [! Selector2~0_combout $end
$var wire 1 \! Selector2~1_combout $end
$var wire 1 ]! Selector1~0_combout $end
$var wire 1 ^! subtractor|subtractor|bit8|sum~combout $end
$var wire 1 _! Selector1~1_combout $end
$var wire 1 `! choice_reg[0]~feeder_combout $end
$var wire 1 a! D~0_combout $end
$var wire 1 b! choice_reg[1]~feeder_combout $end
$var wire 1 c! stock_S0_reg[31]~31_combout $end
$var wire 1 d! stock_S0_reg[0]~97_combout $end
$var wire 1 e! stock_S0_reg[1]~33_cout $end
$var wire 1 f! stock_S0_reg[1]~34_combout $end
$var wire 1 g! stock_S0_reg[31]~96_combout $end
$var wire 1 h! stock_S0_reg[1]~35 $end
$var wire 1 i! stock_S0_reg[2]~36_combout $end
$var wire 1 j! stock_S0_reg[2]~37 $end
$var wire 1 k! stock_S0_reg[3]~38_combout $end
$var wire 1 l! stock_S0_reg[3]~39 $end
$var wire 1 m! stock_S0_reg[4]~40_combout $end
$var wire 1 n! stock_S0_reg[4]~41 $end
$var wire 1 o! stock_S0_reg[5]~42_combout $end
$var wire 1 p! stock_S0_reg[5]~43 $end
$var wire 1 q! stock_S0_reg[6]~44_combout $end
$var wire 1 r! stock_S0_reg[6]~45 $end
$var wire 1 s! stock_S0_reg[7]~46_combout $end
$var wire 1 t! stock_S0_reg[7]~47 $end
$var wire 1 u! stock_S0_reg[8]~48_combout $end
$var wire 1 v! stock_S0_reg[8]~49 $end
$var wire 1 w! stock_S0_reg[9]~50_combout $end
$var wire 1 x! stock_S0_reg[9]~51 $end
$var wire 1 y! stock_S0_reg[10]~52_combout $end
$var wire 1 z! stock_S0_reg[10]~53 $end
$var wire 1 {! stock_S0_reg[11]~54_combout $end
$var wire 1 |! stock_S0_reg[11]~55 $end
$var wire 1 }! stock_S0_reg[12]~56_combout $end
$var wire 1 ~! stock_S0_reg[12]~57 $end
$var wire 1 !" stock_S0_reg[13]~58_combout $end
$var wire 1 "" stock_S0_reg[13]~59 $end
$var wire 1 #" stock_S0_reg[14]~60_combout $end
$var wire 1 $" stock_S0_reg[14]~61 $end
$var wire 1 %" stock_S0_reg[15]~62_combout $end
$var wire 1 &" stock_S0_reg[15]~63 $end
$var wire 1 '" stock_S0_reg[16]~64_combout $end
$var wire 1 (" stock_S0_reg[16]~65 $end
$var wire 1 )" stock_S0_reg[17]~66_combout $end
$var wire 1 *" stock_S0_reg[17]~67 $end
$var wire 1 +" stock_S0_reg[18]~68_combout $end
$var wire 1 ," stock_S0_reg[18]~69 $end
$var wire 1 -" stock_S0_reg[19]~70_combout $end
$var wire 1 ." stock_S0_reg[19]~71 $end
$var wire 1 /" stock_S0_reg[20]~72_combout $end
$var wire 1 0" stock_S0_reg[20]~73 $end
$var wire 1 1" stock_S0_reg[21]~74_combout $end
$var wire 1 2" stock_S0_reg[21]~75 $end
$var wire 1 3" stock_S0_reg[22]~76_combout $end
$var wire 1 4" stock_S0_reg[22]~77 $end
$var wire 1 5" stock_S0_reg[23]~78_combout $end
$var wire 1 6" stock_S0_reg[23]~79 $end
$var wire 1 7" stock_S0_reg[24]~80_combout $end
$var wire 1 8" stock_S0_reg[24]~81 $end
$var wire 1 9" stock_S0_reg[25]~82_combout $end
$var wire 1 :" stock_S0_reg[25]~83 $end
$var wire 1 ;" stock_S0_reg[26]~84_combout $end
$var wire 1 <" stock_S0_reg[26]~85 $end
$var wire 1 =" stock_S0_reg[27]~86_combout $end
$var wire 1 >" stock_S0_reg[27]~87 $end
$var wire 1 ?" stock_S0_reg[28]~88_combout $end
$var wire 1 @" stock_S0_reg[28]~89 $end
$var wire 1 A" stock_S0_reg[29]~90_combout $end
$var wire 1 B" stock_S0_reg[29]~91 $end
$var wire 1 C" stock_S0_reg[30]~92_combout $end
$var wire 1 D" stock_S0_reg[30]~93 $end
$var wire 1 E" stock_S0_reg[31]~94_combout $end
$var wire 1 F" LessThan1~6_combout $end
$var wire 1 G" LessThan1~5_combout $end
$var wire 1 H" LessThan1~7_combout $end
$var wire 1 I" LessThan1~8_combout $end
$var wire 1 J" LessThan1~9_combout $end
$var wire 1 K" LessThan1~0_combout $end
$var wire 1 L" LessThan1~2_combout $end
$var wire 1 M" LessThan1~3_combout $end
$var wire 1 N" LessThan1~1_combout $end
$var wire 1 O" LessThan1~4_combout $end
$var wire 1 P" LessThan1~10_combout $end
$var wire 1 Q" D[1]~1_combout $end
$var wire 1 R" D[1]~2_combout $end
$var wire 1 S" D[0]~reg0_q $end
$var wire 1 T" D~3_combout $end
$var wire 1 U" D[1]~reg0_q $end
$var wire 1 V" D~4_combout $end
$var wire 1 W" D[2]~reg0_q $end
$var wire 1 X" ESTQ~0_combout $end
$var wire 1 Y" price_reg [8] $end
$var wire 1 Z" price_reg [7] $end
$var wire 1 [" price_reg [6] $end
$var wire 1 \" price_reg [5] $end
$var wire 1 ]" price_reg [4] $end
$var wire 1 ^" price_reg [3] $end
$var wire 1 _" price_reg [2] $end
$var wire 1 `" price_reg [1] $end
$var wire 1 a" price_reg [0] $end
$var wire 1 b" stock_S0_reg [31] $end
$var wire 1 c" stock_S0_reg [30] $end
$var wire 1 d" stock_S0_reg [29] $end
$var wire 1 e" stock_S0_reg [28] $end
$var wire 1 f" stock_S0_reg [27] $end
$var wire 1 g" stock_S0_reg [26] $end
$var wire 1 h" stock_S0_reg [25] $end
$var wire 1 i" stock_S0_reg [24] $end
$var wire 1 j" stock_S0_reg [23] $end
$var wire 1 k" stock_S0_reg [22] $end
$var wire 1 l" stock_S0_reg [21] $end
$var wire 1 m" stock_S0_reg [20] $end
$var wire 1 n" stock_S0_reg [19] $end
$var wire 1 o" stock_S0_reg [18] $end
$var wire 1 p" stock_S0_reg [17] $end
$var wire 1 q" stock_S0_reg [16] $end
$var wire 1 r" stock_S0_reg [15] $end
$var wire 1 s" stock_S0_reg [14] $end
$var wire 1 t" stock_S0_reg [13] $end
$var wire 1 u" stock_S0_reg [12] $end
$var wire 1 v" stock_S0_reg [11] $end
$var wire 1 w" stock_S0_reg [10] $end
$var wire 1 x" stock_S0_reg [9] $end
$var wire 1 y" stock_S0_reg [8] $end
$var wire 1 z" stock_S0_reg [7] $end
$var wire 1 {" stock_S0_reg [6] $end
$var wire 1 |" stock_S0_reg [5] $end
$var wire 1 }" stock_S0_reg [4] $end
$var wire 1 ~" stock_S0_reg [3] $end
$var wire 1 !# stock_S0_reg [2] $end
$var wire 1 "# stock_S0_reg [1] $end
$var wire 1 ## stock_S0_reg [0] $end
$var wire 1 $# accumulator|temp2 [8] $end
$var wire 1 %# accumulator|temp2 [7] $end
$var wire 1 &# accumulator|temp2 [6] $end
$var wire 1 '# accumulator|temp2 [5] $end
$var wire 1 (# accumulator|temp2 [4] $end
$var wire 1 )# accumulator|temp2 [3] $end
$var wire 1 *# accumulator|temp2 [2] $end
$var wire 1 +# accumulator|temp2 [1] $end
$var wire 1 ,# accumulator|temp2 [0] $end
$var wire 1 -# choice_reg [2] $end
$var wire 1 .# choice_reg [1] $end
$var wire 1 /# choice_reg [0] $end
$var wire 1 0# mux|output [8] $end
$var wire 1 1# mux|output [7] $end
$var wire 1 2# mux|output [6] $end
$var wire 1 3# mux|output [5] $end
$var wire 1 4# mux|output [4] $end
$var wire 1 5# mux|output [3] $end
$var wire 1 6# mux|output [2] $end
$var wire 1 7# mux|output [1] $end
$var wire 1 8# mux|output [0] $end
$upscope $end
$upscope $end
$enddefinitions $end
#0
$dumpvars
0!
b1 "
0#
1$
b110010 %
0(
0'
0&
01
00
0/
0.
0-
0,
0+
0*
0)
0:
09
08
07
06
05
04
03
02
0C
0B
0A
0@
0?
0>
0=
0<
0;
xD
0E
1F
xG
1H
1I
1J
0K
0L
0M
0N
0O
0P
0Q
0R
0S
0T
0U
0V
0W
0X
0Y
0Z
0[
0\
0]
0^
0_
0`
0a
0b
0c
0d
0e
0f
0g
0h
0i
0j
1k
0l
0m
0n
1o
1p
1q
0r
0s
0t
0u
0v
0w
1x
0y
1z
0{
0|
1}
0~
1!!
0"!
1#!
1$!
0%!
0&!
0'!
0(!
0)!
0*!
0+!
1,!
0-!
1.!
0/!
00!
01!
02!
03!
04!
05!
06!
07!
08!
09!
1:!
0;!
0<!
0=!
0>!
0?!
0@!
0A!
0B!
0C!
0D!
0E!
0F!
0G!
0H!
0I!
0J!
0K!
0L!
0M!
1N!
0O!
0P!
0Q!
0R!
1S!
0T!
0U!
0V!
0W!
0X!
0Y!
0Z!
0[!
0\!
0]!
1^!
0_!
1`!
0a!
0b!
0c!
0d!
1e!
0f!
0g!
0h!
0i!
1j!
0k!
0l!
0m!
1n!
0o!
0p!
0q!
1r!
0s!
0t!
0u!
1v!
0w!
0x!
0y!
1z!
0{!
0|!
0}!
1~!
0!"
0""
0#"
1$"
0%"
0&"
0'"
1("
0)"
0*"
0+"
1,"
0-"
0."
0/"
10"
01"
02"
03"
14"
05"
06"
07"
18"
09"
0:"
0;"
1<"
0="
0>"
0?"
1@"
0A"
0B"
0C"
1D"
0E"
1F"
1G"
1H"
1I"
1J"
0K"
1L"
1M"
1N"
0O"
0P"
1Q"
1R"
0S"
0T"
0U"
1V"
0W"
0X"
za"
0`"
0_"
z^"
0]"
z\"
z["
0Z"
zY"
0##
0"#
0!#
0~"
0}"
0|"
0{"
0z"
0y"
0x"
0w"
0v"
0u"
0t"
0s"
0r"
0q"
0p"
0o"
0n"
0m"
0l"
0k"
0j"
0i"
0h"
0g"
0f"
0e"
0d"
0c"
0b"
0,#
0+#
0*#
0)#
0(#
0'#
0&#
0%#
0$#
0/#
0.#
0-#
z8#
17#
z6#
z5#
z4#
z3#
z2#
z1#
z0#
$end
#16000
1!
1l
0D
1?!
1=!
1%!
1r
1@!
10!
1+!
#25000
1#
1i
1j
1D
1/#
1A!
1>!
1]"
1_"
1`"
1'#
1(#
1+#
1Z"
0V"
0Q"
1c!
1;!
0?!
0N!
17!
11!
0.!
1/!
0+!
1&!
0$!
0^!
0:!
1G!
1F!
1C!
0S!
18!
12!
1'!
0%!
0;!
1P
1O
1L
1>
1?
1B
#40000
0!
0l
0D
0#!
#50000
0#
0i
0j
1D
#75000
1#
1i
1j
0D
#80000
b10010 %
b10 %
b1010 %
1u
0}
0z
1D
1)!
1"!
0/!
1+!
0!!
1.!
1Q!
1L!
01!
02!
1R!
1M!
1W
1U
1.
10
#96000
1!
1l
0D
#100000
0#
0i
0j
1D
#120000
0!
0l
0D
#125000
1#
1i
1j
1D
#150000
0#
0i
0j
0D
#175000
1#
1i
1j
1D
#176000
1!
1l
0D
#200000
0#
0!
0i
0l
0j
1D
#225000
1#
1i
1j
0D
#250000
0#
0i
0j
1D
#256000
1!
1l
0D
#275000
1#
1i
1j
1D
#280000
b1001010 %
b1001110 %
b1001100 %
b1101100 %
b1100100 %
0!
0x
1v
0u
1z
1t
0l
0D
0L!
0&!
1$!
1O!
1(!
0'!
1~
0Q!
0)!
1V!
11!
0.!
1X!
12!
0(!
1'!
1%!
1)!
1!!
13!
02!
00!
0M!
1P!
0R!
1W!
1Z!
0)!
0"!
14!
0U
1V
0W
1Y
1Z
00
1/
0.
1,
1+
0X!
0V!
0O!
0Z!
0W!
0P!
0Z
0Y
0V
0+
0,
0/
#300000
0#
0i
0j
1D
#325000
1#
1i
1j
0D
#336000
1!
1l
1D
1#!
#350000
0#
0i
0j
0D
#360000
0!
0l
1D
0#!
#375000
1#
1i
1j
0D
#400000
0#
0i
0j
1D
#416000
1!
1l
0D
1#!
#425000
1#
1i
1j
1D
1%#
0'#
1*#
1^!
1:!
15!
04!
19!
01!
1.!
1N!
07!
1(!
0'!
1I!
0G!
1D!
0@!
1;!
16!
0^!
0:!
03!
12!
10!
1S!
08!
1)!
1R
0P
1M
1<
0>
1A
1@!
0;!
05!
14!
09!
06!
1^!
1:!
0@!
1;!
#440000
b1100101 %
b1110101 %
b110101 %
b110001 %
b10001 %
b11001 %
0!
1w
0v
1u
1}
0z
0t
0l
0D
1|
1y
0(!
1'!
0~
1-!
1*!
0)!
1"!
1/!
0+!
0!!
0.!
02!
0#!
1!!
0-!
0*!
1)!
1+!
1T!
1Q!
1K!
0"!
0+!
1T
11
1U!
1R!
0T!
0Q!
1X
1W
1-
1.
0K!
0T
01
0U!
0R!
0X
0W
0-
0.
#450000
0#
0i
0j
1D
#475000
1#
1i
1j
0D
0A!
1<!
1[!
1T!
1O!
1L!
0;!
0%!
1#!
0r
1g!
1d!
1a!
0=!
0I!
0F!
0D!
0C!
1\!
04!
00!
0)!
0'!
0y
0R
0O
0M
0L
1[
0<
0?
0A
0B
1*
0\!
0[
0*
#496000
1!
1l
1D
#500000
0#
0i
0j
0D
#520000
0!
0l
1D
#525000
1#
1i
1j
0D
1##
0>!
0<!
0%#
0(#
0*#
0+#
1S"
1K"
0e!
0g!
0a!
0[!
0^!
0:!
0T!
0S!
18!
0/!
0O!
17!
0L!
0$!
1]
1(
1\!
1U!
1P!
1M!
1O"
1h!
1f!
19!
1S!
1[
1X
1V
1U
1*
1-
1/
10
0\!
0U!
0P!
0M!
1P"
0j!
1i!
0[
0X
0V
0U
0*
0-
0/
00
1Q"
1l!
1k!
1X"
0n!
1m!
1b
1a
1`
18
19
1:
1p!
1o!
0r!
1q!
1t!
1s!
0v!
1u!
1x!
1w!
0z!
1y!
1|!
1{!
0~!
1}!
1""
1!"
0$"
1#"
1&"
1%"
0("
1'"
1*"
1)"
0,"
1+"
1."
1-"
00"
1/"
12"
11"
04"
13"
16"
15"
08"
17"
1:"
19"
0<"
1;"
1>"
1="
0@"
1?"
1B"
1A"
0D"
1C"
1E"
#550000
0#
0i
0j
1D
#575000
1#
1i
1j
0D
0S"
0]
0(
#576000
1!
1l
1D
1?!
1=!
1r
1@!
1+!
1)!
1y
#600000
0#
0!
0i
0l
0j
0D
0?!
0=!
0r
0@!
0+!
0)!
0y
#625000
1#
1i
1j
1D
#650000
0#
0i
0j
0D
#656000
1!
1l
1D
1?!
1=!
1r
1@!
1+!
1)!
1y
#675000
1#
1i
1j
0D
1A!
1>!
1(#
1)#
1,#
0?!
08!
1/!
0+!
1-!
1*!
0)!
1$!
0y
1F!
1E!
1B!
0X"
09!
10!
1+!
1%!
1O
1N
1K
0b
0a
0`
1?
1@
1C
08
09
0:
#680000
0!
0l
1D
0#!
#700000
b11011 %
b11010 %
b1010 %
0#
0w
1x
0}
0i
0j
0D
0|
1y
0!!
0/!
0+!
1"!
1Q!
1L!
1R!
1M!
1W
1U
1.
10
#725000
1#
1i
1j
1D
#736000
1!
1l
0D
#750000
0#
0i
0j
1D
#760000
0!
0l
0D
#775000
1#
1i
1j
1D
#800000
0#
0i
0j
0D
#816000
1!
1l
1D
#825000
1#
1i
1j
0D
#840000
0!
0l
1D
#850000
0#
0i
0j
0D
#875000
1#
1i
1j
1D
#896000
1!
1l
0D
#900000
0#
0i
0j
1D
#920000
0!
0l
0D
#925000
1#
1i
1j
1D
#950000
0#
0i
0j
0D
#975000
1#
1i
1j
1D
#976000
1!
1l
0D
#999000
b0 "
0$
b10 %
b0 %
0#
0!
0k
0x
0u
0o
0i
0l
0j
1D
0@!
0=!
0L!
0$!
0Q!
0-!
0*!
1)!
0`!
0q
0p
0%!
00!
1+!
0M!
0R!
0U
0W
00
0.
#1000000
b10 "
b1000000 %
b1000100 %
b1100100 %
1v
1z
1t
1n
0D
1O!
1'!
1~
1V!
1.!
1X!
12!
1b!
1q
1p
1!!
10!
1P!
1W!
1Z!
0"!
1V
1Y
1Z
1/
1,
1+
0X!
0V!
0O!
0Z!
0W!
0P!
0Z
0Y
0V
0+
0,
0/
#1040000
1$
1!
1k
1l
1D
1@!
1=!
1#!
#1060000
0!
0l
0D
0#!
#1070000
1#
1i
1j
1D
#1090000
0#
0i
0j
0D
#1116000
1!
1l
1D
1#!
#1120000
1#
1i
1j
0D
1&#
1'#
1*#
13!
02!
11!
0.!
0N!
1(!
0'!
1H!
1G!
1D!
14!
12!
00!
1-!
1*!
0)!
1Q
1P
1M
1=
1>
1A
10!
0+!
#1140000
0!
0#
0l
0i
0j
1D
0#!
#1170000
1#
1i
1j
0D
#1190000
0#
0i
0j
1D
#1196000
1!
1l
0D
1#!
#1220000
1#
0!
1i
0l
1j
1D
0#!
1%#
0(#
0)#
0*#
1^!
1:!
15!
04!
18!
0,!
1+!
0-!
0*!
1)!
1N!
0(!
1'!
1I!
0F!
0E!
0D!
0@!
1;!
16!
00!
0+!
0)!
1R
0O
0N
0M
1<
0?
0@
0A
#1240000
0#
0i
0j
0D
#1270000
1#
1i
1j
1D
0A!
1<!
1[!
1X!
1V!
0;!
1#!
0r
0R"
1a!
1Y!
0=!
1K!
0I!
0H!
0G!
0B!
1\!
1R!
1M!
06!
02!
0'!
0y
1T
0R
0Q
0P
0K
1[
1W
1U
11
0<
0=
0>
0C
1*
1.
10
0\!
1Z!
0[
1Z
0*
1+
#1276000
1!
1l
0D
#1290000
0#
0i
0j
1D
#1300000
0!
0l
0D
#1320000
1#
1i
1j
1D
0>!
0<!
0%#
0&#
0'#
0,#
1R"
0a!
0[!
0Y!
0^!
0:!
05!
0X!
19!
0V!
01!
1.!
1X"
1\!
1W!
0R!
0M!
0K!
03!
1b
1a
1`
1[
1Y
0W
0U
0T
18
19
1:
1*
1,
0.
00
01
0\!
0Z!
0W!
0[
0Z
0Y
0*
0+
0,
#1340000
0#
0i
0j
0D
#1356000
1!
1l
1D
1?!
1=!
1r
1@!
12!
10!
1'!
#1370000
1#
1i
1j
0D
1.#
0/#
1A!
1>!
1&#
1'#
1*#
0Q"
0c!
0?!
09!
13!
02!
11!
0.!
0N!
1(!
0'!
1H!
1G!
1D!
0X"
14!
12!
00!
1)!
1Q
1P
1M
0b
0a
0`
1=
1>
1A
08
09
0:
#1380000
0!
0l
1D
0#!
#1390000
0#
0i
0j
0D
#1420000
1#
1i
1j
1D
#1436000
1!
1l
0D
1#!
#1440000
0#
0i
0j
1D
#1460000
0!
0l
0D
0#!
#1470000
1#
1i
1j
1D
#1490000
0#
0i
0j
0D
#1516000
1!
1l
1D
1#!
#1520000
1#
1i
1j
0D
1%#
0'#
1)#
0*#
1^!
1:!
15!
04!
01!
1.!
0S!
1*!
0)!
1N!
0(!
1'!
1I!
0G!
1E!
0D!
0@!
1;!
16!
02!
10!
1+!
0*!
1)!
1R
0P
1N
0M
1<
0>
1@
0A
0+!
#1540000
0!
0#
0l
0i
0j
1D
0#!
#1570000
1#
1i
1j
0D
0A!
1<!
1[!
1X!
1Q!
0;!
1#!
0r
1T"
0=!
0I!
0H!
0E!
1\!
1W!
1U!
1M!
06!
00!
0)!
0'!
0R
0Q
0N
1[
1Y
1X
1U
0<
0=
0@
1*
1,
1-
10
0\!
0[
0*
#1590000
0#
0i
0j
1D
#1596000
1!
1l
0D
#1620000
1#
0!
1i
0l
1j
1D
0>!
0<!
0%#
0&#
0)#
1U"
0T"
0[!
0^!
0:!
05!
0X!
19!
03!
1S!
0Q!
1^
1'
1\!
1Z!
0W!
0U!
1R!
0M!
1[
1Z
0Y
0X
1W
0U
1*
1+
0,
0-
1.
00
0\!
0Z!
0R!
0[
0Z
0W
0*
0+
0.
#1640000
0#
0i
0j
0D
#1670000
1#
1i
1j
1D
0U"
0^
0'
#1676000
1!
1l
0D
1?!
1=!
1r
1@!
12!
10!
1'!
#1690000
0#
0i
0j
1D
#1700000
0!
0l
0D
0?!
0=!
0r
0@!
02!
00!
0'!
#1720000
1#
1i
1j
1D
#1740000
0#
0i
0j
0D
#1756000
1!
1l
1D
1?!
1=!
1r
1@!
12!
10!
1'!
#1770000
1#
1i
1j
0D
1A!
1>!
1&#
1'#
1*#
0?!
09!
13!
02!
11!
0.!
0N!
1(!
0'!
1H!
1G!
1D!
14!
12!
00!
1)!
1Q
1P
1M
1=
1>
1A
#1780000
0!
0l
1D
0#!
#1790000
0#
0i
0j
0D
#1820000
1#
1i
1j
1D
#1836000
1!
1l
0D
1#!
#1840000
0#
0i
0j
1D
#1860000
0!
0l
0D
0#!
#1870000
1#
1i
1j
1D
#1890000
0#
0i
0j
0D
#1916000
1!
1l
1D
1#!
#1920000
b100100 %
b100000 %
b0 %
1#
0v
0z
0t
1i
1j
0D
0(!
1'!
0~
01!
1.!
1"!
02!
0)!
0!!
03!
12!
10!
0#!
04!
1%#
0'#
1)#
0*#
1^!
1:!
14!
0.!
0S!
1)!
1N!
0'!
1I!
0G!
1E!
0D!
0@!
1;!
00!
1R
0P
1N
0M
1<
0>
1@
0A
#1940000
0!
0#
0l
0i
0j
1D
#1970000
1#
1i
1j
0D
0A!
1<!
1[!
1X!
1Q!
0;!
1#!
0r
1T"
0=!
0I!
0H!
0E!
1\!
1W!
1U!
1M!
04!
02!
0)!
0R
0Q
0N
1[
1Y
1X
1U
0<
0=
0@
1*
1,
1-
10
0\!
0[
0*
#1990000
0#
0i
0j
1D
#1996000
1!
1l
0D
#2020000
1#
0!
1i
0l
1j
1D
0>!
0<!
0%#
0&#
0)#
1U"
0T"
0[!
0^!
0:!
0X!
19!
1S!
0Q!
1^
1'
1\!
1Z!
0W!
0U!
1R!
0M!
1[
1Z
0Y
0X
1W
0U
1*
1+
0,
0-
1.
00
0\!
0Z!
0R!
0[
0Z
0W
0*
0+
0.
#2040000
0#
0i
0j
0D
#2070000
1#
1i
1j
1D
0U"
0^
0'
#2076000
1!
1l
0D
1?!
1=!
0#!
1r
1@!
#2090000
0#
0i
0j
1D
#2100000
0!
0l
0D
0?!
0=!
1#!
0r
0@!
#2120000
1#
1i
1j
1D
#2140000
0#
0i
0j
0D
#2156000
1!
1l
1D
1?!
1=!
0#!
1r
1@!
#2170000
1#
1i
1j
0D
1A!
1>!
0?!
#2180000
0!
0l
1D
#2190000
0#
0i
0j
0D
#2200000
b0 "
0$
0n
0k
1D
0b!
0q
0p
0@!
0=!
